s1 8900 true 2013-12-28 21:57:56.823
s1 9000 true 2013-12-30 21:57:56.823
s2 8000 true 2013-12-29 21:57:56.823
s2 8700 true 2013-12-30 21:57:56.823
s2 8600 true 2013-12-31 21:57:56.823
s3 8500 true 2013-12-30 21:57:56.823
s3 8100 true 2014-01-10 21:57:56.823
